{
  "project_info": {
    "project_number": "249901484256",
    "project_id": "landscapewallpaper-62d69",
    "storage_bucket": "landscapewallpaper-62d69.appspot.com"
  },
  "client": [
    {
      "client_info": {
        "mobilesdk_app_id": "1:249901484256:android:afd511e8185efd05bc6885",
        "android_client_info": {
          "package_name": "com.anhttvn.landscapewallpaper"
        }
      },
      "oauth_client": [
        {
          "client_id": "249901484256-b2tqf1lgidp5rk86gp4ahnrnr3ksc5o0.apps.googleusercontent.com",
          "client_type": 3
        }
      ],
      "api_key": [
        {
          "current_key": "AIzaSyAYlQDFlTvSWSNekQibZ7kCrX4BS76x8qo"
        }
      ],
      "services": {
        "appinvite_service": {
          "other_platform_oauth_client": [
            {
              "client_id": "249901484256-b2tqf1lgidp5rk86gp4ahnrnr3ksc5o0.apps.googleusercontent.com",
              "client_type": 3
            }
          ]
        }
      }
    }
  ],
  "configuration_version": "1"
}